{
  "parent": "endrem:main/end_crystal_pearl",
  "display": {
    "icon": {
      "item": "endrem:end_crystal_chestplate",
      "nbt": "{Damage:0}"
    },
    "title": {
      "translate": "advancements.main.root.end_crystal_armor.title"
    },
    "description": {
      "translate": "advancements.main.root.end_crystal_armor.description"
    },
    "frame": "challenge",
    "show_toast": true,
    "announce_to_chat": true,
    "hidden": false
  },
  "rewards": {
    "experience": 150
  },
  "criteria": {
    "end_crystal_armor": {
      "trigger": "minecraft:inventory_changed",
      "conditions": {
        "items": [
          {
            "item": "endrem:end_crystal_helmet"
          },
          {
            "item": "endrem:end_crystal_chestplate"
          },
          {
            "item": "endrem:end_crystal_leggings"
          },
          {
            "item": "endrem:end_crystal_boots"
          }
        ]
      }
    }
  },
  "requirements": [
    [
      "end_crystal_armor"
    ]
  ]
}